<?xml version="1.0" encoding="utf-8"?>
<!-- Generator: Adobe Illustrator 19.2.1, SVG Export Plug-In . SVG Version: 6.00 Build 0)  -->
<svg version="1.1" id="Layer_2" xmlns="http://www.w3.org/2000/svg" xmlns:xlink="http://www.w3.org/1999/xlink" x="0px" y="0px"
	 width="50px" height="50px" viewBox="0 0 50 50" style="enable-background:new 0 0 50 50;" xml:space="preserve">
<style type="text/css">
	.st0{fill:#E53C65;}
	.st1{fill:#FFFFFF;}
</style>
<circle class="st0" cx="25" cy="25" r="24.5"/>
<g>
	<g>
		<path class="st1" d="M38.5,21.9l-2.1-0.4c-0.2-0.7-0.5-1.4-0.8-2l1.2-1.7c0.5-0.7,0.4-1.7-0.2-2.4l-1.9-1.9
			c-0.4-0.4-0.8-0.5-1.3-0.5c-0.4,0-0.8,0.1-1.1,0.3l-1.7,1.2c-0.7-0.4-1.4-0.7-2.1-0.9l-0.4-2.1c-0.2-0.9-0.9-1.5-1.8-1.5h-2.6
			c-0.9,0-1.7,0.7-1.8,1.5l-0.4,2.1c-0.7,0.2-1.4,0.5-2,0.9l-1.7-1.2C17.4,13.1,17,13,16.6,13c-0.5,0-1,0.2-1.3,0.5l-1.9,1.9
			c-0.6,0.6-0.7,1.6-0.2,2.4l1.3,1.8c-0.3,0.7-0.6,1.3-0.8,2l-2.1,0.4c-0.9,0.2-1.5,0.9-1.5,1.8v2.6c0,0.9,0.7,1.7,1.5,1.8l2.1,0.4
			c0.2,0.7,0.5,1.4,0.9,2l-1.2,1.7c-0.5,0.7-0.4,1.7,0.2,2.4l1.9,1.9c0.4,0.4,0.8,0.5,1.3,0.5c0.4,0,0.8-0.1,1.1-0.3l1.8-1.3
			c0.6,0.3,1.3,0.6,2,0.8l0.4,2.1c0.2,0.9,0.9,1.5,1.8,1.5h2.6c0.9,0,1.7-0.7,1.8-1.5l0.4-2.1c0.7-0.2,1.4-0.5,2-0.8l1.7,1.2
			c0.3,0.2,0.7,0.3,1.1,0.3c0.5,0,1-0.2,1.3-0.5l1.9-1.9c0.6-0.6,0.7-1.6,0.2-2.4l-1.2-1.7c0.3-0.7,0.6-1.3,0.8-2l2.1-0.4
			c0.9-0.2,1.5-0.9,1.5-1.8v-2.6C40,22.8,39.4,22,38.5,21.9L38.5,21.9z M38.3,26.3c0,0.1-0.1,0.2-0.1,0.2l-2.6,0.4
			c-0.3,0.1-0.6,0.3-0.7,0.6c-0.2,0.9-0.6,1.8-1.1,2.6c-0.2,0.3-0.2,0.6,0,0.9l1.5,2.2c0,0.1,0,0.2,0,0.2l-1.9,1.9c0,0-0.1,0-0.1,0
			c0,0-0.1,0-0.1,0l-2.2-1.5c-0.3-0.2-0.6-0.2-0.9,0c-0.8,0.5-1.7,0.9-2.6,1.1c-0.3,0.1-0.6,0.4-0.6,0.7l-0.4,2.6
			c0,0.1-0.1,0.1-0.2,0.1h-2.6c-0.1,0-0.2-0.1-0.2-0.1l-0.4-2.6c-0.1-0.3-0.3-0.6-0.6-0.7c-0.9-0.2-1.8-0.6-2.6-1.1
			c-0.1-0.1-0.3-0.1-0.4-0.1c-0.2,0-0.3,0.1-0.5,0.2l-2.2,1.6c0,0-0.1,0-0.1,0c0,0-0.1,0-0.1-0.1l-1.9-1.9c-0.1-0.1-0.1-0.1,0-0.2
			l1.5-2.2c0.2-0.3,0.2-0.6,0-0.9c-0.5-0.8-0.9-1.7-1.1-2.6c-0.1-0.3-0.4-0.6-0.7-0.6l-2.7-0.5c-0.1,0-0.1-0.1-0.1-0.2v-2.6
			c0-0.1,0.1-0.2,0.1-0.2l2.6-0.4c0.3-0.1,0.6-0.3,0.7-0.6c0.2-0.9,0.6-1.8,1.1-2.6c0.2-0.3,0.2-0.6,0-0.9l-1.6-2.2
			c0-0.1,0-0.2,0-0.2l1.9-1.9c0,0,0.1-0.1,0.1-0.1c0,0,0.1,0,0.1,0l2.2,1.5c0.3,0.2,0.6,0.2,0.9,0c0.8-0.5,1.7-0.9,2.6-1.1
			c0.3-0.1,0.6-0.4,0.6-0.7l0.5-2.7c0-0.1,0.1-0.1,0.2-0.1h2.6c0.1,0,0.2,0.1,0.2,0.1l0.4,2.6c0.1,0.3,0.3,0.6,0.6,0.7
			c0.9,0.2,1.8,0.6,2.7,1.1c0.3,0.2,0.6,0.2,0.9,0l2.2-1.6c0,0,0.1,0,0.1,0c0,0,0.1,0,0.1,0.1l1.9,1.9c0.1,0.1,0.1,0.1,0,0.2
			l-1.5,2.2c-0.2,0.3-0.2,0.6,0,0.9c0.5,0.8,0.9,1.7,1.1,2.6c0.1,0.3,0.4,0.6,0.7,0.6l2.6,0.4c0.1,0,0.1,0.1,0.1,0.2L38.3,26.3
			L38.3,26.3z M38.3,26.3"/>
	</g>
	<path class="st1" d="M25,18.5c-3.6,0-6.5,2.9-6.5,6.5c0,3.6,2.9,6.5,6.5,6.5c3.6,0,6.5-2.9,6.5-6.5C31.5,21.4,28.6,18.5,25,18.5
		L25,18.5z M25,29.8c-2.6,0-4.8-2.1-4.8-4.8c0-2.6,2.1-4.8,4.8-4.8c2.6,0,4.8,2.1,4.8,4.8C29.8,27.6,27.6,29.8,25,29.8L25,29.8z
		 M25,29.8"/>
</g>
</svg>
